C51 COMPILER V9.52.0.0   LED                                                               04/24/2019 16:34:16 PAGE 1   


C51 COMPILER V9.52.0.0, COMPILATION OF MODULE LED
OBJECT MODULE PLACED IN LED.OBJ
COMPILER INVOKED BY: C:\Keil_4\C51\BIN\C51.EXE LED.C LARGE OMF2 BROWSE DEBUG TABS(2)

line level    source

   1          #include <MPC82G516.h>
   2          #include <intrins.h>
   3          
   4          #define LED_Data  P0
   5          sbit LED_DataLE = P2^1; 
   6          
   7          const unsigned char code tab_LED[10] = {
   8            0x00, 0x0A, 0x12, 0x22, 0x42, 0x0C, 0x14, 0x24, 0x44, 0x7C};
   9          /*
  10          LED_status :
  11          00 : all off
  12          01 : LED1 on
  13          02 : LED2 on
  14            :
  15            :
  16            :
  17          08 : LED8 on
  18          10 : POWER LED + LED1 on
  19            :
  20            :
  21            :
  22          */
  23          void LED_Disp(unsigned char led_status)
  24          {
  25   1        unsigned char c=0;
  26   1        if (led_status & 0x10)
  27   1          c |= 0x01;
  28   1        led_status &= 0x0F;
  29   1        c |= tab_LED[led_status]; 
  30   1      
  31   1           LED_DataLE=1;
  32   1           LED_Data=c;
  33   1        _nop_();
  34   1        _nop_();
  35   1          _nop_();
  36   1        LED_DataLE=0;
  37   1      }
  38          
  39          void LED_Init(void)
  40          {
  41   1        LED_Disp(0x00);
  42   1      }


MODULE INFORMATION:   STATIC OVERLAYABLE
   CODE SIZE        =     30    ----
   CONSTANT SIZE    =     10    ----
   XDATA SIZE       =   ----    ----
   PDATA SIZE       =   ----    ----
   DATA SIZE        =   ----    ----
   IDATA SIZE       =   ----    ----
   BIT SIZE         =   ----    ----
   EDATA SIZE       =   ----    ----
   HDATA SIZE       =   ----    ----
   XDATA CONST SIZE =   ----    ----
C51 COMPILER V9.52.0.0   LED                                                               04/24/2019 16:34:16 PAGE 2   

   FAR CONST SIZE   =   ----    ----
END OF MODULE INFORMATION.


C51 COMPILATION COMPLETE.  0 WARNING(S),  0 ERROR(S)
