C51 COMPILER V9.52.0.0   MCP4011                                                           04/24/2019 16:34:16 PAGE 1   


C51 COMPILER V9.52.0.0, COMPILATION OF MODULE MCP4011
OBJECT MODULE PLACED IN MCP4011.OBJ
COMPILER INVOKED BY: C:\Keil_4\C51\BIN\C51.EXE MCP4011.c LARGE OMF2 BROWSE DEBUG TABS(2)

line level    source

   1          #include <MPC82G516.h>
   2          #include <intrins.h>
   3          #include <MCP4011.h>
   4          
   5          sbit  EVR_UD  = P4^3;
   6          sbit  EVR_CS  = P4^2;
   7          
   8          
   9          void Increment_R(unsigned char value_up)
  10          {
  11   1        unsigned char i;
  12   1      
  13   1        EVR_CS = 1;
  14   1        EVR_UD = 1;
  15   1        _nop_();    //110us
  16   1        _nop_();
  17   1        EVR_CS = 0;
  18   1        _nop_();
  19   1      
  20   1           for (i=0; i<value_up; i++)
  21   1        {
  22   2          EVR_UD = 0;
  23   2          _nop_();
  24   2          _nop_();
  25   2          EVR_UD = 1;
  26   2          _nop_();
  27   2        }
  28   1        EVR_CS = 1;
  29   1        _nop_(); 
  30   1      }
  31          
  32          void Decrement_R(unsigned char value_down)
  33          {
  34   1        unsigned char i;
  35   1      
  36   1        EVR_CS = 1;
  37   1        EVR_UD = 0;       
  38   1        _nop_();    //110us
  39   1        _nop_();
  40   1        EVR_CS = 0;
  41   1        _nop_();
  42   1         
  43   1           for (i=0; i<value_down; i++)
  44   1        {
  45   2          EVR_UD = 1;
  46   2          _nop_();
  47   2          _nop_();
  48   2          EVR_UD = 0;
  49   2          _nop_();
  50   2        }
  51   1        EVR_CS = 1;
  52   1        _nop_(); 
  53   1      } 


C51 COMPILER V9.52.0.0   MCP4011                                                           04/24/2019 16:34:16 PAGE 2   

MODULE INFORMATION:   STATIC OVERLAYABLE
   CODE SIZE        =     60    ----
   CONSTANT SIZE    =   ----    ----
   XDATA SIZE       =   ----    ----
   PDATA SIZE       =   ----    ----
   DATA SIZE        =   ----    ----
   IDATA SIZE       =   ----    ----
   BIT SIZE         =   ----    ----
   EDATA SIZE       =   ----    ----
   HDATA SIZE       =   ----    ----
   XDATA CONST SIZE =   ----    ----
   FAR CONST SIZE   =   ----    ----
END OF MODULE INFORMATION.


C51 COMPILATION COMPLETE.  0 WARNING(S),  0 ERROR(S)
